^Z:\SKILLBOX\11_1\HELLOWORLD\DEBUG\HELLOWORLD.OBJ
Z:\WINDOWS KITS\10\LIB\10.0.18362.0\UM\X86\KERNEL32.LIB
Z:\WINDOWS KITS\10\LIB\10.0.18362.0\UM\X86\USER32.LIB
Z:\WINDOWS KITS\10\LIB\10.0.18362.0\UM\X86\GDI32.LIB
Z:\WINDOWS KITS\10\LIB\10.0.18362.0\UM\X86\WINSPOOL.LIB
Z:\WINDOWS KITS\10\LIB\10.0.18362.0\UM\X86\COMDLG32.LIB
Z:\WINDOWS KITS\10\LIB\10.0.18362.0\UM\X86\ADVAPI32.LIB
Z:\WINDOWS KITS\10\LIB\10.0.18362.0\UM\X86\SHELL32.LIB
Z:\WINDOWS KITS\10\LIB\10.0.18362.0\UM\X86\OLE32.LIB
Z:\WINDOWS KITS\10\LIB\10.0.18362.0\UM\X86\OLEAUT32.LIB
Z:\WINDOWS KITS\10\LIB\10.0.18362.0\UM\X86\UUID.LIB
Z:\WINDOWS KITS\10\LIB\10.0.18362.0\UM\X86\ODBC32.LIB
Z:\WINDOWS KITS\10\LIB\10.0.18362.0\UM\X86\ODBCCP32.LIB
Z:\SKILLBOX\11_1\HELLOWORLD\DEBUG\HELLOWORLD.OBJ
C:\WINDOWS\GLOBALIZATION\SORTING\SORTDEFAULT.NLS
Z:\PROGRAM FILES (X86)\MICROSOFT VISUAL STUDIO\2019\PROFESSIONAL\VC\TOOLS\MSVC\14.28.29333\LIB\X86\MSVCPRTD.LIB
Z:\PROGRAM FILES (X86)\MICROSOFT VISUAL STUDIO\2019\PROFESSIONAL\VC\TOOLS\MSVC\14.28.29333\LIB\X86\MSVCRTD.LIB
Z:\PROGRAM FILES (X86)\MICROSOFT VISUAL STUDIO\2019\PROFESSIONAL\VC\TOOLS\MSVC\14.28.29333\LIB\X86\OLDNAMES.LIB
Z:\PROGRAM FILES (X86)\MICROSOFT VISUAL STUDIO\2019\PROFESSIONAL\VC\TOOLS\MSVC\14.28.29333\LIB\X86\VCRUNTIMED.LIB
Z:\WINDOWS KITS\10\LIB\10.0.18362.0\UCRT\X86\UCRTD.LIB
Z:\WINDOWS KITS\10\BIN\10.0.18362.0\X86\RC.EXE
Z:\PROGRAM FILES (X86)\MICROSOFT VISUAL STUDIO\2019\PROFESSIONAL\VC\TOOLS\MSVC\14.28.29333\BIN\HOSTX86\X86\CVTRES.EXE
Z:\PROGRAM FILES (X86)\MICROSOFT VISUAL STUDIO\2019\PROFESSIONAL\VC\TOOLS\MSVC\14.28.29333\BIN\HOSTX86\X86\MSPDBSRV.EXE
C:\WINDOWS\SYSTEM32\TZRES.DLL
C:\WINDOWS\SYSTEM32\RSAENH.DLL
